<svg width="3509" height="2119" viewBox="0 0 3509 2119" fill="none" xmlns="http://www.w3.org/2000/svg">
<rect width="3509" height="2119" fill="white"/>
<circle cx="2304" cy="193" r="104" fill="#D99BFF"/>
<path d="M2253.02 210V183.818H2257.91V188.08H2258.24C2258.78 186.636 2259.68 185.511 2260.91 184.705C2262.15 183.886 2263.64 183.477 2265.36 183.477C2267.11 183.477 2268.58 183.886 2269.76 184.705C2270.95 185.523 2271.84 186.648 2272.4 188.08H2272.68C2273.3 186.682 2274.3 185.568 2275.66 184.739C2277.02 183.898 2278.65 183.477 2280.53 183.477C2282.91 183.477 2284.85 184.222 2286.35 185.71C2287.86 187.199 2288.61 189.443 2288.61 192.443V210H2283.52V192.92C2283.52 191.148 2283.03 189.864 2282.07 189.068C2281.1 188.273 2279.95 187.875 2278.61 187.875C2276.95 187.875 2275.66 188.386 2274.74 189.409C2273.82 190.42 2273.36 191.722 2273.36 193.312V210H2268.28V192.597C2268.28 191.176 2267.84 190.034 2266.95 189.17C2266.06 188.307 2264.91 187.875 2263.49 187.875C2262.52 187.875 2261.63 188.131 2260.81 188.642C2260.01 189.142 2259.35 189.841 2258.85 190.739C2258.36 191.636 2258.12 192.676 2258.12 193.858V210H2253.02ZM2302.54 210.58C2300.88 210.58 2299.38 210.273 2298.04 209.659C2296.7 209.034 2295.63 208.131 2294.85 206.949C2294.08 205.767 2293.69 204.318 2293.69 202.602C2293.69 201.125 2293.97 199.909 2294.54 198.955C2295.11 198 2295.88 197.244 2296.84 196.688C2297.81 196.131 2298.89 195.71 2300.08 195.426C2301.27 195.142 2302.49 194.926 2303.73 194.778C2305.3 194.597 2306.57 194.449 2307.55 194.335C2308.52 194.21 2309.23 194.011 2309.68 193.739C2310.12 193.466 2310.34 193.023 2310.34 192.409V192.29C2310.34 190.801 2309.92 189.648 2309.08 188.83C2308.25 188.011 2307.01 187.602 2305.37 187.602C2303.65 187.602 2302.3 187.983 2301.31 188.744C2300.33 189.494 2299.66 190.33 2299.28 191.25L2294.49 190.159C2295.06 188.568 2295.89 187.284 2296.98 186.307C2298.08 185.318 2299.35 184.602 2300.78 184.159C2302.21 183.705 2303.72 183.477 2305.3 183.477C2306.34 183.477 2307.45 183.602 2308.62 183.852C2309.8 184.091 2310.91 184.534 2311.93 185.182C2312.96 185.83 2313.81 186.756 2314.47 187.96C2315.13 189.153 2315.46 190.705 2315.46 192.614V210H2310.48V206.42H2310.27C2309.95 207.08 2309.45 207.727 2308.79 208.364C2308.13 209 2307.29 209.528 2306.25 209.949C2305.22 210.369 2303.98 210.58 2302.54 210.58ZM2303.64 206.489C2305.05 206.489 2306.26 206.21 2307.26 205.653C2308.27 205.097 2309.04 204.369 2309.56 203.472C2310.09 202.562 2310.36 201.591 2310.36 200.557V197.182C2310.18 197.364 2309.83 197.534 2309.3 197.693C2308.79 197.841 2308.21 197.972 2307.55 198.085C2306.89 198.187 2306.25 198.284 2305.62 198.375C2305 198.455 2304.47 198.523 2304.05 198.58C2303.06 198.705 2302.16 198.915 2301.34 199.21C2300.54 199.506 2299.89 199.932 2299.4 200.489C2298.92 201.034 2298.68 201.761 2298.68 202.67C2298.68 203.932 2299.15 204.886 2300.08 205.534C2301.01 206.17 2302.2 206.489 2303.64 206.489ZM2321.72 210V183.818H2326.81V210H2321.72ZM2324.29 179.778C2323.4 179.778 2322.64 179.483 2322.01 178.892C2321.38 178.29 2321.07 177.574 2321.07 176.744C2321.07 175.903 2321.38 175.187 2322.01 174.597C2322.64 173.994 2323.4 173.693 2324.29 173.693C2325.18 173.693 2325.93 173.994 2326.56 174.597C2327.19 175.187 2327.51 175.903 2327.51 176.744C2327.51 177.574 2327.19 178.29 2326.56 178.892C2325.93 179.483 2325.18 179.778 2324.29 179.778ZM2338.24 194.455V210H2333.14V183.818H2338.03V188.08H2338.36C2338.96 186.693 2339.9 185.58 2341.19 184.739C2342.48 183.898 2344.11 183.477 2346.08 183.477C2347.86 183.477 2349.43 183.852 2350.77 184.602C2352.11 185.341 2353.15 186.443 2353.89 187.909C2354.62 189.375 2354.99 191.187 2354.99 193.347V210H2349.9V193.96C2349.9 192.062 2349.4 190.58 2348.41 189.511C2347.43 188.432 2346.07 187.892 2344.34 187.892C2343.16 187.892 2342.11 188.148 2341.19 188.659C2340.28 189.17 2339.56 189.92 2339.02 190.909C2338.5 191.886 2338.24 193.068 2338.24 194.455Z" fill="#333333"/>
<circle cx="2304" cy="837" r="104" fill="#D99BFF"/>
<path d="M2275.43 854.511C2273.31 854.511 2271.43 853.972 2269.77 852.892C2268.12 851.801 2266.82 850.25 2265.88 848.239C2264.95 846.216 2264.48 843.79 2264.48 840.96C2264.48 838.131 2264.96 835.71 2265.9 833.699C2266.85 831.687 2268.16 830.148 2269.82 829.08C2271.48 828.011 2273.36 827.477 2275.46 827.477C2277.09 827.477 2278.39 827.75 2279.38 828.295C2280.38 828.83 2281.15 829.455 2281.7 830.17C2282.26 830.886 2282.69 831.517 2283 832.062H2283.3V819.091H2288.4V854H2283.42V849.926H2283C2282.69 850.483 2282.25 851.119 2281.67 851.835C2281.1 852.551 2280.31 853.176 2279.31 853.71C2278.31 854.244 2277.02 854.511 2275.43 854.511ZM2276.55 850.165C2278.02 850.165 2279.26 849.778 2280.27 849.006C2281.29 848.222 2282.06 847.136 2282.59 845.75C2283.12 844.364 2283.39 842.75 2283.39 840.909C2283.39 839.091 2283.13 837.5 2282.6 836.136C2282.08 834.773 2281.31 833.71 2280.3 832.949C2279.29 832.187 2278.04 831.807 2276.55 831.807C2275.02 831.807 2273.74 832.205 2272.72 833C2271.69 833.795 2270.92 834.881 2270.4 836.256C2269.89 837.631 2269.63 839.182 2269.63 840.909C2269.63 842.659 2269.89 844.233 2270.42 845.631C2270.94 847.028 2271.71 848.136 2272.73 848.955C2273.77 849.761 2275.04 850.165 2276.55 850.165ZM2306.43 854.528C2303.85 854.528 2301.63 853.977 2299.76 852.875C2297.91 851.761 2296.48 850.199 2295.47 848.188C2294.47 846.165 2293.97 843.795 2293.97 841.08C2293.97 838.398 2294.47 836.034 2295.47 833.989C2296.48 831.943 2297.89 830.347 2299.7 829.199C2301.51 828.051 2303.64 827.477 2306.07 827.477C2307.55 827.477 2308.98 827.722 2310.37 828.21C2311.75 828.699 2313 829.466 2314.1 830.511C2315.2 831.557 2316.07 832.915 2316.71 834.585C2317.34 836.244 2317.66 838.261 2317.66 840.636V842.443H2296.85V838.625H2312.67C2312.67 837.284 2312.39 836.097 2311.85 835.062C2311.3 834.017 2310.54 833.193 2309.55 832.591C2308.57 831.989 2307.42 831.688 2306.11 831.688C2304.67 831.688 2303.42 832.04 2302.36 832.744C2301.3 833.437 2300.48 834.347 2299.9 835.472C2299.33 836.585 2299.05 837.795 2299.05 839.102V842.085C2299.05 843.835 2299.36 845.324 2299.97 846.551C2300.59 847.778 2301.46 848.716 2302.58 849.364C2303.69 850 2304.99 850.318 2306.48 850.318C2307.45 850.318 2308.33 850.182 2309.12 849.909C2309.92 849.625 2310.61 849.205 2311.18 848.648C2311.76 848.091 2312.21 847.403 2312.51 846.585L2317.34 847.455C2316.95 848.875 2316.26 850.119 2315.26 851.188C2314.27 852.244 2313.03 853.068 2311.53 853.659C2310.04 854.239 2308.34 854.528 2306.43 854.528ZM2344.44 827.818L2334.94 854H2329.49L2319.98 827.818H2325.45L2332.08 847.966H2332.35L2338.96 827.818H2344.44Z" fill="#333333"/>
<circle cx="1420" cy="1505" r="104" fill="#D99BFF"/>
<path d="M1378.81 1506.34V1518H1374.99V1491.82H1378.76V1501.56H1379.01C1379.47 1500.5 1380.17 1499.66 1381.11 1499.04C1382.06 1498.42 1383.3 1498.11 1384.82 1498.11C1386.17 1498.11 1387.34 1498.38 1388.35 1498.94C1389.36 1499.49 1390.15 1500.32 1390.7 1501.42C1391.27 1502.51 1391.55 1503.87 1391.55 1505.51V1518H1387.72V1505.97C1387.72 1504.53 1387.35 1503.41 1386.61 1502.62C1385.87 1501.82 1384.84 1501.42 1383.52 1501.42C1382.61 1501.42 1381.81 1501.61 1381.09 1501.99C1380.38 1502.38 1379.82 1502.94 1379.41 1503.68C1379.01 1504.41 1378.81 1505.3 1378.81 1506.34ZM1396.25 1518V1498.36H1400.07V1518H1396.25ZM1398.18 1495.33C1397.52 1495.33 1396.95 1495.11 1396.47 1494.67C1396 1494.22 1395.77 1493.68 1395.77 1493.06C1395.77 1492.43 1396 1491.89 1396.47 1491.45C1396.95 1491 1397.52 1490.77 1398.18 1490.77C1398.85 1490.77 1399.41 1491 1399.88 1491.45C1400.36 1491.89 1400.6 1492.43 1400.6 1493.06C1400.6 1493.68 1400.36 1494.22 1399.88 1494.67C1399.41 1495.11 1398.85 1495.33 1398.18 1495.33ZM1404.82 1518V1498.36H1408.51V1501.48H1408.72C1409.08 1500.43 1409.71 1499.6 1410.61 1498.99C1411.52 1498.38 1412.55 1498.07 1413.71 1498.07C1413.94 1498.07 1414.23 1498.08 1414.55 1498.1C1414.88 1498.11 1415.14 1498.13 1415.33 1498.16V1501.82C1415.18 1501.77 1414.9 1501.73 1414.51 1501.67C1414.12 1501.62 1413.73 1501.59 1413.33 1501.59C1412.43 1501.59 1411.63 1501.78 1410.92 1502.16C1410.22 1502.54 1409.67 1503.06 1409.26 1503.73C1408.85 1504.4 1408.64 1505.16 1408.64 1506.01V1518H1404.82ZM1418.24 1518V1498.36H1422.06V1518H1418.24ZM1420.17 1495.33C1419.51 1495.33 1418.94 1495.11 1418.46 1494.67C1417.99 1494.22 1417.75 1493.68 1417.75 1493.06C1417.75 1492.43 1417.99 1491.89 1418.46 1491.45C1418.94 1491 1419.51 1490.77 1420.17 1490.77C1420.84 1490.77 1421.4 1491 1421.87 1491.45C1422.35 1491.89 1422.59 1492.43 1422.59 1493.06C1422.59 1493.68 1422.35 1494.22 1421.87 1494.67C1421.4 1495.11 1420.84 1495.33 1420.17 1495.33ZM1430.63 1506.34V1518H1426.81V1498.36H1430.48V1501.56H1430.72C1431.17 1500.52 1431.88 1499.68 1432.84 1499.05C1433.82 1498.42 1435.04 1498.11 1436.51 1498.11C1437.85 1498.11 1439.02 1498.39 1440.03 1498.95C1441.03 1499.51 1441.81 1500.33 1442.37 1501.43C1442.92 1502.53 1443.2 1503.89 1443.2 1505.51V1518H1439.38V1505.97C1439.38 1504.55 1439.01 1503.43 1438.26 1502.63C1437.52 1501.82 1436.5 1501.42 1435.21 1501.42C1434.32 1501.42 1433.53 1501.61 1432.84 1501.99C1432.16 1502.38 1431.62 1502.94 1431.22 1503.68C1430.83 1504.41 1430.63 1505.3 1430.63 1506.34ZM1456.16 1525.77C1454.6 1525.77 1453.26 1525.57 1452.14 1525.16C1451.02 1524.75 1450.11 1524.21 1449.4 1523.54C1448.69 1522.86 1448.16 1522.13 1447.81 1521.32L1451.1 1519.97C1451.33 1520.34 1451.64 1520.74 1452.02 1521.16C1452.41 1521.58 1452.94 1521.95 1453.61 1522.24C1454.28 1522.54 1455.14 1522.69 1456.2 1522.69C1457.65 1522.69 1458.85 1522.34 1459.79 1521.63C1460.74 1520.93 1461.21 1519.82 1461.21 1518.28V1514.42H1460.97C1460.74 1514.84 1460.41 1515.3 1459.97 1515.81C1459.55 1516.33 1458.96 1516.77 1458.21 1517.14C1457.46 1517.52 1456.48 1517.71 1455.28 1517.71C1453.73 1517.71 1452.33 1517.34 1451.09 1516.62C1449.85 1515.89 1448.87 1514.81 1448.15 1513.38C1447.43 1511.95 1447.07 1510.19 1447.07 1508.11C1447.07 1506.02 1447.43 1504.23 1448.13 1502.74C1448.85 1501.24 1449.83 1500.1 1451.07 1499.31C1452.32 1498.51 1453.73 1498.11 1455.31 1498.11C1456.52 1498.11 1457.51 1498.31 1458.26 1498.72C1459.01 1499.12 1459.59 1499.59 1460.01 1500.13C1460.44 1500.66 1460.76 1501.14 1460.99 1501.55H1461.28V1498.36H1465.02V1518.43C1465.02 1520.12 1464.63 1521.51 1463.85 1522.59C1463.06 1523.67 1462 1524.47 1460.66 1524.99C1459.33 1525.51 1457.83 1525.77 1456.16 1525.77ZM1456.12 1514.54C1457.22 1514.54 1458.15 1514.28 1458.91 1513.77C1459.68 1513.25 1460.26 1512.51 1460.65 1511.54C1461.05 1510.57 1461.25 1509.41 1461.25 1508.05C1461.25 1506.73 1461.05 1505.57 1460.66 1504.56C1460.27 1503.56 1459.69 1502.77 1458.94 1502.21C1458.18 1501.64 1457.24 1501.36 1456.12 1501.36C1454.97 1501.36 1454.01 1501.65 1453.25 1502.25C1452.48 1502.84 1451.9 1503.64 1451.51 1504.65C1451.13 1505.67 1450.93 1506.8 1450.93 1508.05C1450.93 1509.34 1451.13 1510.47 1451.52 1511.44C1451.91 1512.41 1452.49 1513.17 1453.26 1513.72C1454.04 1514.26 1454.99 1514.54 1456.12 1514.54Z" fill="#333333"/>
<circle cx="852" cy="1505" r="104" fill="#D99BFF"/>
<path d="M809.89 1518.4C807.956 1518.4 806.289 1517.98 804.892 1517.16C803.503 1516.32 802.429 1515.15 801.67 1513.64C800.92 1512.12 800.545 1510.35 800.545 1508.31C800.545 1506.3 800.92 1504.53 801.67 1502.99C802.429 1501.46 803.486 1500.26 804.841 1499.4C806.204 1498.54 807.798 1498.11 809.622 1498.11C810.73 1498.11 811.804 1498.29 812.843 1498.66C813.883 1499.02 814.816 1499.6 815.643 1500.38C816.47 1501.17 817.122 1502.19 817.599 1503.44C818.076 1504.68 818.315 1506.2 818.315 1507.98V1509.33H802.706V1506.47H814.569C814.569 1505.46 814.365 1504.57 813.956 1503.8C813.547 1503.01 812.971 1502.39 812.23 1501.94C811.497 1501.49 810.636 1501.27 809.647 1501.27C808.574 1501.27 807.636 1501.53 806.835 1502.06C806.042 1502.58 805.429 1503.26 804.994 1504.1C804.568 1504.94 804.355 1505.85 804.355 1506.83V1509.06C804.355 1510.38 804.585 1511.49 805.045 1512.41C805.514 1513.33 806.166 1514.04 807.001 1514.52C807.836 1515 808.812 1515.24 809.929 1515.24C810.653 1515.24 811.314 1515.14 811.91 1514.93C812.507 1514.72 813.022 1514.4 813.457 1513.99C813.892 1513.57 814.224 1513.05 814.454 1512.44L818.072 1513.09C817.782 1514.16 817.263 1515.09 816.513 1515.89C815.771 1516.68 814.838 1517.3 813.713 1517.74C812.596 1518.18 811.322 1518.4 809.89 1518.4ZM822.16 1518V1498.36H825.829V1501.56H826.072C826.481 1500.48 827.15 1499.63 828.079 1499.03C829.008 1498.41 830.12 1498.11 831.416 1498.11C832.728 1498.11 833.828 1498.41 834.714 1499.03C835.609 1499.64 836.27 1500.49 836.696 1501.56H836.9C837.369 1500.51 838.115 1499.68 839.137 1499.05C840.16 1498.42 841.379 1498.11 842.794 1498.11C844.575 1498.11 846.028 1498.67 847.153 1499.78C848.287 1500.9 848.853 1502.58 848.853 1504.83V1518H845.031V1505.19C845.031 1503.86 844.669 1502.9 843.944 1502.3C843.22 1501.7 842.355 1501.41 841.349 1501.41C840.105 1501.41 839.137 1501.79 838.447 1502.56C837.757 1503.32 837.412 1504.29 837.412 1505.48V1518H833.602V1504.95C833.602 1503.88 833.27 1503.03 832.605 1502.38C831.94 1501.73 831.075 1501.41 830.01 1501.41C829.285 1501.41 828.616 1501.6 828.003 1501.98C827.397 1502.36 826.907 1502.88 826.532 1503.55C826.166 1504.23 825.983 1505.01 825.983 1505.89V1518H822.16ZM853.581 1525.36V1498.36H857.314V1501.55H857.633C857.855 1501.14 858.174 1500.66 858.592 1500.13C859.01 1499.59 859.589 1499.12 860.331 1498.72C861.072 1498.31 862.052 1498.11 863.271 1498.11C864.856 1498.11 866.271 1498.51 867.515 1499.31C868.76 1500.11 869.735 1501.27 870.443 1502.77C871.159 1504.28 871.517 1506.1 871.517 1508.22C871.517 1510.34 871.163 1512.16 870.456 1513.68C869.748 1515.19 868.777 1516.35 867.541 1517.17C866.305 1517.98 864.895 1518.38 863.309 1518.38C862.116 1518.38 861.14 1518.18 860.382 1517.78C859.632 1517.38 859.044 1516.91 858.618 1516.38C858.191 1515.84 857.863 1515.36 857.633 1514.94H857.403V1525.36H853.581ZM857.326 1508.18C857.326 1509.56 857.527 1510.77 857.927 1511.81C858.328 1512.85 858.907 1513.67 859.666 1514.25C860.424 1514.83 861.353 1515.12 862.453 1515.12C863.595 1515.12 864.549 1514.82 865.316 1514.22C866.083 1513.6 866.663 1512.77 867.055 1511.72C867.456 1510.67 867.656 1509.49 867.656 1508.18C867.656 1506.89 867.46 1505.72 867.068 1504.69C866.684 1503.66 866.105 1502.85 865.329 1502.25C864.562 1501.65 863.603 1501.36 862.453 1501.36C861.345 1501.36 860.407 1501.64 859.64 1502.21C858.882 1502.78 858.306 1503.58 857.914 1504.6C857.522 1505.62 857.326 1506.82 857.326 1508.18ZM875.71 1491.82H880.504L888.839 1512.17H889.146L897.481 1491.82H902.275V1518H898.517V1499.05H898.274L890.552 1517.96H887.433L879.712 1499.04H879.469V1518H875.71V1491.82Z" fill="#333333"/>
<circle cx="180" cy="1505" r="104" fill="#D99BFF"/>
<path d="M171.326 1518.43C170.082 1518.43 168.957 1518.2 167.951 1517.74C166.945 1517.28 166.148 1516.6 165.56 1515.71C164.981 1514.83 164.691 1513.74 164.691 1512.45C164.691 1511.34 164.904 1510.43 165.33 1509.72C165.756 1509 166.332 1508.43 167.056 1508.02C167.78 1507.6 168.59 1507.28 169.485 1507.07C170.38 1506.86 171.292 1506.69 172.221 1506.58C173.397 1506.45 174.351 1506.34 175.084 1506.25C175.817 1506.16 176.35 1506.01 176.682 1505.8C177.015 1505.6 177.181 1505.27 177.181 1504.81V1504.72C177.181 1503.6 176.866 1502.74 176.235 1502.12C175.613 1501.51 174.684 1501.2 173.448 1501.2C172.161 1501.2 171.147 1501.49 170.405 1502.06C169.672 1502.62 169.165 1503.25 168.884 1503.94L165.292 1503.12C165.718 1501.93 166.34 1500.96 167.158 1500.23C167.985 1499.49 168.935 1498.95 170.009 1498.62C171.083 1498.28 172.212 1498.11 173.397 1498.11C174.181 1498.11 175.012 1498.2 175.89 1498.39C176.776 1498.57 177.603 1498.9 178.37 1499.39C179.145 1499.87 179.78 1500.57 180.275 1501.47C180.769 1502.37 181.016 1503.53 181.016 1504.96V1518H177.283V1515.32H177.13C176.883 1515.81 176.512 1516.3 176.018 1516.77C175.523 1517.25 174.888 1517.65 174.113 1517.96C173.337 1518.28 172.408 1518.43 171.326 1518.43ZM172.157 1515.37C173.214 1515.37 174.117 1515.16 174.867 1514.74C175.626 1514.32 176.201 1513.78 176.593 1513.1C176.993 1512.42 177.194 1511.69 177.194 1510.92V1508.39C177.057 1508.52 176.793 1508.65 176.401 1508.77C176.018 1508.88 175.579 1508.98 175.084 1509.06C174.59 1509.14 174.109 1509.21 173.64 1509.28C173.171 1509.34 172.779 1509.39 172.464 1509.43C171.722 1509.53 171.045 1509.69 170.431 1509.91C169.826 1510.13 169.34 1510.45 168.974 1510.87C168.616 1511.28 168.437 1511.82 168.437 1512.5C168.437 1513.45 168.786 1514.16 169.485 1514.65C170.184 1515.13 171.074 1515.37 172.157 1515.37ZM185.711 1518V1498.36H189.406V1501.48H189.611C189.969 1500.43 190.599 1499.6 191.503 1498.99C192.415 1498.38 193.446 1498.07 194.596 1498.07C194.835 1498.07 195.116 1498.08 195.44 1498.1C195.773 1498.11 196.032 1498.13 196.22 1498.16V1501.82C196.067 1501.77 195.794 1501.73 195.402 1501.67C195.01 1501.62 194.618 1501.59 194.226 1501.59C193.322 1501.59 192.517 1501.78 191.809 1502.16C191.111 1502.54 190.557 1503.06 190.148 1503.73C189.738 1504.4 189.534 1505.16 189.534 1506.01V1518H185.711Z" fill="#333333"/>
<circle cx="2164" cy="1505" r="104" fill="#D99BFF"/>
<path d="M2142.01 1518.43C2140.76 1518.43 2139.64 1518.2 2138.63 1517.74C2137.63 1517.28 2136.83 1516.6 2136.24 1515.71C2135.66 1514.83 2135.37 1513.74 2135.37 1512.45C2135.37 1511.34 2135.58 1510.43 2136.01 1509.72C2136.44 1509 2137.01 1508.43 2137.74 1508.02C2138.46 1507.6 2139.27 1507.28 2140.17 1507.07C2141.06 1506.86 2141.97 1506.69 2142.9 1506.58C2144.08 1506.45 2145.03 1506.34 2145.76 1506.25C2146.5 1506.16 2147.03 1506.01 2147.36 1505.8C2147.7 1505.6 2147.86 1505.27 2147.86 1504.81V1504.72C2147.86 1503.6 2147.55 1502.74 2146.92 1502.12C2146.29 1501.51 2145.36 1501.2 2144.13 1501.2C2142.84 1501.2 2141.83 1501.49 2141.09 1502.06C2140.35 1502.62 2139.85 1503.25 2139.56 1503.94L2135.97 1503.12C2136.4 1501.93 2137.02 1500.96 2137.84 1500.23C2138.67 1499.49 2139.62 1498.95 2140.69 1498.62C2141.76 1498.28 2142.89 1498.11 2144.08 1498.11C2144.86 1498.11 2145.69 1498.2 2146.57 1498.39C2147.46 1498.57 2148.28 1498.9 2149.05 1499.39C2149.83 1499.87 2150.46 1500.57 2150.96 1501.47C2151.45 1502.37 2151.7 1503.53 2151.7 1504.96V1518H2147.96V1515.32H2147.81C2147.56 1515.81 2147.19 1516.3 2146.7 1516.77C2146.2 1517.25 2145.57 1517.65 2144.79 1517.96C2144.02 1518.28 2143.09 1518.43 2142.01 1518.43ZM2142.84 1515.37C2143.89 1515.37 2144.8 1515.16 2145.55 1514.74C2146.31 1514.32 2146.88 1513.78 2147.27 1513.1C2147.67 1512.42 2147.87 1511.69 2147.87 1510.92V1508.39C2147.74 1508.52 2147.47 1508.65 2147.08 1508.77C2146.7 1508.88 2146.26 1508.98 2145.76 1509.06C2145.27 1509.14 2144.79 1509.21 2144.32 1509.28C2143.85 1509.34 2143.46 1509.39 2143.14 1509.43C2142.4 1509.53 2141.73 1509.69 2141.11 1509.91C2140.51 1510.13 2140.02 1510.45 2139.65 1510.87C2139.3 1511.28 2139.12 1511.82 2139.12 1512.5C2139.12 1513.45 2139.47 1514.16 2140.17 1514.65C2140.86 1515.13 2141.75 1515.37 2142.84 1515.37ZM2164.66 1518.4C2162.76 1518.4 2161.13 1517.97 2159.75 1517.11C2158.39 1516.24 2157.34 1515.04 2156.61 1513.51C2155.88 1511.99 2155.51 1510.24 2155.51 1508.27C2155.51 1506.28 2155.88 1504.52 2156.63 1502.99C2157.38 1501.46 2158.44 1500.26 2159.81 1499.4C2161.17 1498.54 2162.78 1498.11 2164.62 1498.11C2166.12 1498.11 2167.45 1498.38 2168.61 1498.94C2169.78 1499.48 2170.72 1500.25 2171.44 1501.24C2172.16 1502.23 2172.59 1503.38 2172.73 1504.7H2169.01C2168.81 1503.78 2168.34 1502.99 2167.6 1502.33C2166.88 1501.66 2165.91 1501.33 2164.69 1501.33C2163.62 1501.33 2162.69 1501.61 2161.89 1502.17C2161.1 1502.73 2160.48 1503.52 2160.04 1504.55C2159.59 1505.57 2159.37 1506.78 2159.37 1508.18C2159.37 1509.61 2159.59 1510.85 2160.02 1511.89C2160.46 1512.93 2161.07 1513.73 2161.86 1514.31C2162.66 1514.88 2163.61 1515.16 2164.69 1515.16C2165.41 1515.16 2166.07 1515.03 2166.66 1514.77C2167.25 1514.49 2167.75 1514.11 2168.15 1513.6C2168.56 1513.1 2168.85 1512.49 2169.01 1511.79H2172.73C2172.59 1513.06 2172.18 1514.19 2171.49 1515.19C2170.8 1516.18 2169.87 1516.97 2168.72 1517.54C2167.57 1518.11 2166.21 1518.4 2164.66 1518.4ZM2184.69 1518.4C2182.79 1518.4 2181.16 1517.97 2179.78 1517.11C2178.42 1516.24 2177.37 1515.04 2176.64 1513.51C2175.91 1511.99 2175.54 1510.24 2175.54 1508.27C2175.54 1506.28 2175.91 1504.52 2176.66 1502.99C2177.41 1501.46 2178.47 1500.26 2179.84 1499.4C2181.2 1498.54 2182.81 1498.11 2184.65 1498.11C2186.15 1498.11 2187.48 1498.38 2188.64 1498.94C2189.81 1499.48 2190.75 1500.25 2191.47 1501.24C2192.19 1502.23 2192.62 1503.38 2192.76 1504.7H2189.04C2188.84 1503.78 2188.37 1502.99 2187.63 1502.33C2186.91 1501.66 2185.94 1501.33 2184.72 1501.33C2183.65 1501.33 2182.72 1501.61 2181.92 1502.17C2181.13 1502.73 2180.51 1503.52 2180.07 1504.55C2179.62 1505.57 2179.4 1506.78 2179.4 1508.18C2179.4 1509.61 2179.62 1510.85 2180.05 1511.89C2180.49 1512.93 2181.1 1513.73 2181.89 1514.31C2182.69 1514.88 2183.64 1515.16 2184.72 1515.16C2185.44 1515.16 2186.1 1515.03 2186.69 1514.77C2187.28 1514.49 2187.78 1514.11 2188.18 1513.6C2188.59 1513.1 2188.88 1512.49 2189.04 1511.79H2192.76C2192.62 1513.06 2192.21 1514.19 2191.52 1515.19C2190.83 1516.18 2189.9 1516.97 2188.75 1517.54C2187.59 1518.11 2186.24 1518.4 2184.69 1518.4Z" fill="#333333"/>
<circle cx="3048" cy="837" r="104" fill="#D99BFF"/>
<path d="M3000.88 823.818V850H2997.05V823.818H3000.88ZM3005.62 850V830.364H3009.45V850H3005.62ZM3007.55 827.334C3006.89 827.334 3006.32 827.112 3005.84 826.669C3005.37 826.217 3005.14 825.68 3005.14 825.058C3005.14 824.428 3005.37 823.891 3005.84 823.447C3006.32 822.996 3006.89 822.77 3007.55 822.77C3008.22 822.77 3008.79 822.996 3009.25 823.447C3009.73 823.891 3009.97 824.428 3009.97 825.058C3009.97 825.68 3009.73 826.217 3009.25 826.669C3008.79 827.112 3008.22 827.334 3007.55 827.334ZM3014.5 850V823.818H3018.32V833.547H3018.55C3018.77 833.138 3019.09 832.665 3019.51 832.128C3019.93 831.591 3020.51 831.122 3021.25 830.722C3021.99 830.312 3022.97 830.108 3024.19 830.108C3025.77 830.108 3027.19 830.509 3028.43 831.31C3029.68 832.111 3030.65 833.266 3031.36 834.774C3032.08 836.283 3032.44 838.098 3032.44 840.22C3032.44 842.342 3032.08 844.162 3031.37 845.679C3030.67 847.187 3029.7 848.351 3028.46 849.169C3027.22 849.979 3025.81 850.384 3024.23 850.384C3023.03 850.384 3022.06 850.183 3021.3 849.783C3020.55 849.382 3019.96 848.913 3019.54 848.376C3019.11 847.839 3018.78 847.362 3018.55 846.945H3018.23V850H3014.5ZM3018.24 840.182C3018.24 841.562 3018.45 842.773 3018.85 843.812C3019.25 844.852 3019.83 845.666 3020.58 846.254C3021.34 846.834 3022.27 847.124 3023.37 847.124C3024.51 847.124 3025.47 846.821 3026.23 846.216C3027 845.602 3027.58 844.771 3027.97 843.723C3028.37 842.675 3028.57 841.494 3028.57 840.182C3028.57 838.886 3028.38 837.723 3027.99 836.692C3027.6 835.661 3027.02 834.847 3026.25 834.25C3025.48 833.653 3024.52 833.355 3023.37 833.355C3022.26 833.355 3021.33 833.641 3020.56 834.212C3019.8 834.783 3019.22 835.58 3018.83 836.602C3018.44 837.625 3018.24 838.818 3018.24 840.182ZM3036.33 850V830.364H3040.03V833.483H3040.23C3040.59 832.426 3041.22 831.595 3042.12 830.99C3043.03 830.376 3044.07 830.07 3045.22 830.07C3045.45 830.07 3045.74 830.078 3046.06 830.095C3046.39 830.112 3046.65 830.134 3046.84 830.159V833.815C3046.69 833.773 3046.41 833.726 3046.02 833.675C3045.63 833.615 3045.24 833.585 3044.85 833.585C3043.94 833.585 3043.14 833.777 3042.43 834.161C3041.73 834.536 3041.18 835.06 3040.77 835.733C3040.36 836.398 3040.15 837.156 3040.15 838.009V850H3036.33ZM3055.29 850.435C3054.05 850.435 3052.92 850.205 3051.92 849.744C3050.91 849.276 3050.11 848.598 3049.52 847.712C3048.95 846.825 3048.66 845.739 3048.66 844.452C3048.66 843.344 3048.87 842.432 3049.29 841.716C3049.72 841 3050.3 840.433 3051.02 840.016C3051.74 839.598 3052.55 839.283 3053.45 839.07C3054.34 838.857 3055.26 838.695 3056.19 838.584C3057.36 838.447 3058.32 838.337 3059.05 838.251C3059.78 838.158 3060.31 838.009 3060.65 837.804C3060.98 837.599 3061.15 837.267 3061.15 836.807V836.717C3061.15 835.601 3060.83 834.736 3060.2 834.122C3059.58 833.509 3058.65 833.202 3057.41 833.202C3056.13 833.202 3055.11 833.487 3054.37 834.058C3053.64 834.621 3053.13 835.247 3052.85 835.938L3049.26 835.119C3049.68 833.926 3050.3 832.963 3051.12 832.23C3051.95 831.489 3052.9 830.952 3053.97 830.619C3055.05 830.278 3056.18 830.108 3057.36 830.108C3058.15 830.108 3058.98 830.202 3059.85 830.389C3060.74 830.568 3061.57 830.901 3062.33 831.386C3063.11 831.872 3063.74 832.567 3064.24 833.47C3064.73 834.365 3064.98 835.528 3064.98 836.96V850H3061.25V847.315H3061.09C3060.85 847.81 3060.48 848.295 3059.98 848.773C3059.49 849.25 3058.85 849.646 3058.08 849.962C3057.3 850.277 3056.37 850.435 3055.29 850.435ZM3056.12 847.366C3057.18 847.366 3058.08 847.158 3058.83 846.74C3059.59 846.322 3060.17 845.777 3060.56 845.104C3060.96 844.422 3061.16 843.693 3061.16 842.918V840.386C3061.02 840.523 3060.76 840.651 3060.37 840.77C3059.98 840.881 3059.54 840.979 3059.05 841.064C3058.55 841.141 3058.07 841.213 3057.6 841.281C3057.14 841.341 3056.74 841.392 3056.43 841.435C3055.69 841.528 3055.01 841.686 3054.4 841.908C3053.79 842.129 3053.3 842.449 3052.94 842.866C3052.58 843.276 3052.4 843.821 3052.4 844.503C3052.4 845.449 3052.75 846.165 3053.45 846.651C3054.15 847.128 3055.04 847.366 3056.12 847.366ZM3069.68 850V830.364H3073.37V833.483H3073.58C3073.93 832.426 3074.56 831.595 3075.47 830.99C3076.38 830.376 3077.41 830.07 3078.56 830.07C3078.8 830.07 3079.08 830.078 3079.4 830.095C3079.74 830.112 3080 830.134 3080.18 830.159V833.815C3080.03 833.773 3079.76 833.726 3079.37 833.675C3078.97 833.615 3078.58 833.585 3078.19 833.585C3077.29 833.585 3076.48 833.777 3075.77 834.161C3075.08 834.536 3074.52 835.06 3074.11 835.733C3073.7 836.398 3073.5 837.156 3073.5 838.009V850H3069.68ZM3086.11 857.364C3085.54 857.364 3085.02 857.317 3084.55 857.223C3084.08 857.138 3083.73 857.044 3083.5 856.942L3084.42 853.81C3085.12 853.997 3085.74 854.078 3086.29 854.053C3086.83 854.027 3087.32 853.822 3087.73 853.439C3088.16 853.055 3088.54 852.429 3088.86 851.56L3089.33 850.256L3082.15 830.364H3086.24L3091.21 845.602H3091.42L3096.39 830.364H3100.49L3092.4 852.621C3092.03 853.643 3091.55 854.509 3090.97 855.216C3090.39 855.932 3089.7 856.469 3088.9 856.827C3088.1 857.185 3087.17 857.364 3086.11 857.364Z" fill="#333333"/>
<circle cx="3316" cy="1925" r="104" fill="#C4C4C4"/>
<path d="M3049.5 945C3049.5 944.172 3048.83 943.5 3048 943.5C3047.17 943.5 3046.5 944.172 3046.5 945H3049.5ZM2162.94 1398.06C2163.53 1398.65 2164.47 1398.65 2165.06 1398.06L2174.61 1388.51C2175.19 1387.93 2175.19 1386.98 2174.61 1386.39C2174.02 1385.81 2173.07 1385.81 2172.49 1386.39L2164 1394.88L2155.51 1386.39C2154.93 1385.81 2153.98 1385.81 2153.39 1386.39C2152.81 1386.98 2152.81 1387.93 2153.39 1388.51L2162.94 1398.06ZM3046.5 945V965H3049.5V945H3046.5ZM3024 987.5H2868V990.5H3024V987.5ZM2842.5 1013V1147H2845.5V1013H2842.5ZM2820 1169.5H2188V1172.5H2820V1169.5ZM2162.5 1195V1397H2165.5V1195H2162.5ZM2188 1169.5C2173.92 1169.5 2162.5 1180.92 2162.5 1195H2165.5C2165.5 1182.57 2175.57 1172.5 2188 1172.5V1169.5ZM2842.5 1147C2842.5 1159.43 2832.43 1169.5 2820 1169.5V1172.5C2834.08 1172.5 2845.5 1161.08 2845.5 1147H2842.5ZM2868 987.5C2853.92 987.5 2842.5 998.917 2842.5 1013H2845.5C2845.5 1000.57 2855.57 990.5 2868 990.5V987.5ZM3046.5 965C3046.5 977.426 3036.43 987.5 3024 987.5V990.5C3038.08 990.5 3049.5 979.083 3049.5 965H3046.5Z" fill="#FFD233"/>
<path d="M3049.5 945C3049.5 944.172 3048.83 943.5 3048 943.5C3047.17 943.5 3046.5 944.172 3046.5 945H3049.5ZM1418.94 1398.06C1419.53 1398.65 1420.47 1398.65 1421.06 1398.06L1430.61 1388.51C1431.19 1387.93 1431.19 1386.98 1430.61 1386.39C1430.02 1385.81 1429.07 1385.81 1428.49 1386.39L1420 1394.88L1411.51 1386.39C1410.93 1385.81 1409.98 1385.81 1409.39 1386.39C1408.81 1386.98 1408.81 1387.93 1409.39 1388.51L1418.94 1398.06ZM3046.5 945V965H3049.5V945H3046.5ZM3024 987.5H2868V990.5H3024V987.5ZM2842.5 1013V1147H2845.5V1013H2842.5ZM2820 1169.5H1444V1172.5H2820V1169.5ZM1418.5 1195V1397H1421.5V1195H1418.5ZM1444 1169.5C1429.92 1169.5 1418.5 1180.92 1418.5 1195H1421.5C1421.5 1182.57 1431.57 1172.5 1444 1172.5V1169.5ZM2842.5 1147C2842.5 1159.43 2832.43 1169.5 2820 1169.5V1172.5C2834.08 1172.5 2845.5 1161.08 2845.5 1147H2842.5ZM2868 987.5C2853.92 987.5 2842.5 998.917 2842.5 1013H2845.5C2845.5 1000.57 2855.57 990.5 2868 990.5V987.5ZM3046.5 965C3046.5 977.426 3036.43 987.5 3024 987.5V990.5C3038.08 990.5 3049.5 979.083 3049.5 965H3046.5Z" fill="#FFD233"/>
<path d="M3049.5 945C3049.5 944.172 3048.83 943.5 3048 943.5C3047.17 943.5 3046.5 944.172 3046.5 945H3049.5ZM178.939 1398.06C179.525 1398.65 180.475 1398.65 181.061 1398.06L190.607 1388.51C191.192 1387.93 191.192 1386.98 190.607 1386.39C190.021 1385.81 189.071 1385.81 188.485 1386.39L180 1394.88L171.515 1386.39C170.929 1385.81 169.979 1385.81 169.393 1386.39C168.808 1386.98 168.808 1387.93 169.393 1388.51L178.939 1398.06ZM3046.5 945V965H3049.5V945H3046.5ZM3024 987.5H2868V990.5H3024V987.5ZM2842.5 1013V1147H2845.5V1013H2842.5ZM2820 1169.5H204V1172.5H2820V1169.5ZM178.5 1195V1397H181.5V1195H178.5ZM204 1169.5C189.917 1169.5 178.5 1180.92 178.5 1195H181.5C181.5 1182.57 191.574 1172.5 204 1172.5V1169.5ZM2842.5 1147C2842.5 1159.43 2832.43 1169.5 2820 1169.5V1172.5C2834.08 1172.5 2845.5 1161.08 2845.5 1147H2842.5ZM2868 987.5C2853.92 987.5 2842.5 998.917 2842.5 1013H2845.5C2845.5 1000.57 2855.57 990.5 2868 990.5V987.5ZM3046.5 965C3046.5 977.426 3036.43 987.5 3024 987.5V990.5C3038.08 990.5 3049.5 979.083 3049.5 965H3046.5Z" fill="#FFD233"/>
<path d="M2272 1503.5C2271.17 1503.5 2270.5 1504.17 2270.5 1505C2270.5 1505.83 2271.17 1506.5 2272 1506.5V1503.5ZM2305.06 943.939C2304.47 943.354 2303.53 943.354 2302.94 943.939L2293.39 953.485C2292.81 954.071 2292.81 955.021 2293.39 955.607C2293.98 956.192 2294.93 956.192 2295.51 955.607L2304 947.121L2312.49 955.607C2313.07 956.192 2314.02 956.192 2314.61 955.607C2315.19 955.021 2315.19 954.071 2314.61 953.485L2305.06 943.939ZM2272 1506.5H2280V1503.5H2272V1506.5ZM2305.5 1481V945H2302.5V1481H2305.5ZM2280 1506.5C2294.08 1506.5 2305.5 1495.08 2305.5 1481H2302.5C2302.5 1493.43 2292.43 1503.5 2280 1503.5V1506.5Z" fill="#4ECB71"/>
<path d="M1528 1503.5C1527.17 1503.5 1526.5 1504.17 1526.5 1505C1526.5 1505.83 1527.17 1506.5 1528 1506.5V1503.5ZM2197.06 838.061C2197.65 837.475 2197.65 836.525 2197.06 835.939L2187.51 826.393C2186.93 825.808 2185.98 825.808 2185.39 826.393C2184.81 826.979 2184.81 827.929 2185.39 828.515L2193.88 837L2185.39 845.485C2184.81 846.071 2184.81 847.021 2185.39 847.607C2185.98 848.192 2186.93 848.192 2187.51 847.607L2197.06 838.061ZM1528 1506.5H1548V1503.5H1528V1506.5ZM1573.5 1481V917H1570.5V1481H1573.5ZM1596 894.5H2100V891.5H1596V894.5ZM2125.5 869V861H2122.5V869H2125.5ZM2148 838.5H2196V835.5H2148V838.5ZM2125.5 861C2125.5 848.574 2135.57 838.5 2148 838.5V835.5C2133.92 835.5 2122.5 846.917 2122.5 861H2125.5ZM2100 894.5C2114.08 894.5 2125.5 883.083 2125.5 869H2122.5C2122.5 881.426 2112.43 891.5 2100 891.5V894.5ZM1573.5 917C1573.5 904.574 1583.57 894.5 1596 894.5V891.5C1581.92 891.5 1570.5 902.917 1570.5 917H1573.5ZM1548 1506.5C1562.08 1506.5 1573.5 1495.08 1573.5 1481H1570.5C1570.5 1493.43 1560.43 1503.5 1548 1503.5V1506.5Z" fill="#4ECB71"/>
<path d="M288 1503.5C287.172 1503.5 286.5 1504.17 286.5 1505C286.5 1505.83 287.172 1506.5 288 1506.5V1503.5ZM2197.06 838.061C2197.65 837.475 2197.65 836.525 2197.06 835.939L2187.51 826.393C2186.93 825.808 2185.98 825.808 2185.39 826.393C2184.81 826.979 2184.81 827.929 2185.39 828.515L2193.88 837L2185.39 845.485C2184.81 846.071 2184.81 847.021 2185.39 847.607C2185.98 848.192 2186.93 848.192 2187.51 847.607L2197.06 838.061ZM288 1506.5H308V1503.5H288V1506.5ZM333.5 1481V861H330.5V1481H333.5ZM356 838.5H2196V835.5H356V838.5ZM333.5 861C333.5 848.574 343.574 838.5 356 838.5V835.5C341.917 835.5 330.5 846.917 330.5 861H333.5ZM308 1506.5C322.083 1506.5 333.5 1495.08 333.5 1481H330.5C330.5 1493.43 320.426 1503.5 308 1503.5V1506.5Z" fill="#4ECB71"/>
<path d="M3314.5 1817C3314.5 1817.83 3315.17 1818.5 3316 1818.5C3316.83 1818.5 3317.5 1817.83 3317.5 1817H3314.5ZM3156 837L3171 845.66V828.34L3156 837ZM3317.5 1817V1775H3314.5V1817H3317.5ZM3313.5 1771V861H3310.5V1771H3313.5ZM3288 835.5H3169.5V838.5H3288V835.5ZM3313.5 861C3313.5 846.917 3302.08 835.5 3288 835.5V838.5C3300.43 838.5 3310.5 848.574 3310.5 861H3313.5ZM3314 1771.5C3313.72 1771.5 3313.5 1771.28 3313.5 1771H3310.5C3310.5 1772.93 3312.07 1774.5 3314 1774.5V1771.5ZM3317.5 1775C3317.5 1773.07 3315.93 1771.5 3314 1771.5V1774.5C3314.28 1774.5 3314.5 1774.72 3314.5 1775H3317.5Z" fill="#4ECB71"/>
<path d="M2302.5 729C2302.5 729.828 2303.17 730.5 2304 730.5C2304.83 730.5 2305.5 729.828 2305.5 729H2302.5ZM2304 301L2295.34 316H2312.66L2304 301ZM2305.5 729V314.5H2302.5V729H2305.5Z" fill="#4ECB71"/>
<path d="M2940 838.5C2940.83 838.5 2941.5 837.828 2941.5 837C2941.5 836.172 2940.83 835.5 2940 835.5V838.5ZM2412 837L2427 845.66V828.34L2412 837ZM2940 835.5H2425.5V838.5H2940V835.5Z" fill="#FFD233"/>
<path d="M3049.5 945C3049.5 944.172 3048.83 943.5 3048 943.5C3047.17 943.5 3046.5 944.172 3046.5 945H3049.5ZM3208 1925L3193 1916.34V1933.66L3208 1925ZM3046.5 945V971H3049.5V945H3046.5ZM3082.5 1007V1901H3085.5V1007H3082.5ZM3108 1926.5H3194.5V1923.5H3108V1926.5ZM3082.5 1901C3082.5 1915.08 3093.92 1926.5 3108 1926.5V1923.5C3095.57 1923.5 3085.5 1913.43 3085.5 1901H3082.5ZM3066 990.5C3075.11 990.5 3082.5 997.887 3082.5 1007H3085.5C3085.5 996.23 3076.77 987.5 3066 987.5V990.5ZM3046.5 971C3046.5 981.77 3055.23 990.5 3066 990.5V987.5C3056.89 987.5 3049.5 980.113 3049.5 971H3046.5Z" fill="#FFD233"/>
<path d="M960 1503.5C959.172 1503.5 958.5 1504.17 958.5 1505C958.5 1505.83 959.172 1506.5 960 1506.5V1503.5ZM2197.06 838.061C2197.65 837.475 2197.65 836.525 2197.06 835.939L2187.51 826.393C2186.93 825.808 2185.98 825.808 2185.39 826.393C2184.81 826.979 2184.81 827.929 2185.39 828.515L2193.88 837L2185.39 845.485C2184.81 846.071 2184.81 847.021 2185.39 847.607C2185.98 848.192 2186.93 848.192 2187.51 847.607L2197.06 838.061ZM960 1506.5H964V1503.5H960V1506.5ZM989.5 1481V805H986.5V1481H989.5ZM1012 782.5H2020V779.5H1012V782.5ZM2042.5 805V813H2045.5V805H2042.5ZM2068 838.5H2196V835.5H2068V838.5ZM2042.5 813C2042.5 827.083 2053.92 838.5 2068 838.5V835.5C2055.57 835.5 2045.5 825.426 2045.5 813H2042.5ZM2020 782.5C2032.43 782.5 2042.5 792.574 2042.5 805H2045.5C2045.5 790.917 2034.08 779.5 2020 779.5V782.5ZM989.5 805C989.5 792.574 999.574 782.5 1012 782.5V779.5C997.917 779.5 986.5 790.917 986.5 805H989.5ZM964 1506.5C978.083 1506.5 989.5 1495.08 989.5 1481H986.5C986.5 1493.43 976.426 1503.5 964 1503.5V1506.5Z" fill="#4ECB71"/>
<path d="M3266.8 1937.38C3265.21 1937.38 3263.8 1936.98 3262.55 1936.17C3261.32 1935.35 3260.35 1934.19 3259.64 1932.68C3258.94 1931.16 3258.59 1929.34 3258.59 1927.22C3258.59 1925.1 3258.94 1923.28 3259.65 1921.77C3260.37 1920.27 3261.35 1919.11 3262.59 1918.31C3263.84 1917.51 3265.25 1917.11 3266.82 1917.11C3268.04 1917.11 3269.02 1917.31 3269.76 1917.72C3270.51 1918.12 3271.09 1918.59 3271.5 1919.13C3271.92 1919.66 3272.24 1920.14 3272.47 1920.55H3272.7V1910.82H3276.53V1937H3272.79V1933.94H3272.47C3272.24 1934.36 3271.91 1934.84 3271.48 1935.38C3271.05 1935.91 3270.46 1936.38 3269.71 1936.78C3268.96 1937.18 3267.99 1937.38 3266.8 1937.38ZM3267.64 1934.12C3268.74 1934.12 3269.67 1933.83 3270.43 1933.25C3271.2 1932.67 3271.78 1931.85 3272.17 1930.81C3272.57 1929.77 3272.77 1928.56 3272.77 1927.18C3272.77 1925.82 3272.57 1924.62 3272.18 1923.6C3271.79 1922.58 3271.21 1921.78 3270.45 1921.21C3269.7 1920.64 3268.76 1920.36 3267.64 1920.36C3266.49 1920.36 3265.53 1920.65 3264.77 1921.25C3264 1921.85 3263.42 1922.66 3263.03 1923.69C3262.64 1924.72 3262.45 1925.89 3262.45 1927.18C3262.45 1928.49 3262.65 1929.67 3263.04 1930.72C3263.43 1931.77 3264.01 1932.6 3264.78 1933.22C3265.55 1933.82 3266.51 1934.12 3267.64 1934.12ZM3290.05 1937.4C3288.11 1937.4 3286.45 1936.98 3285.05 1936.16C3283.66 1935.32 3282.59 1934.15 3281.83 1932.64C3281.08 1931.12 3280.7 1929.35 3280.7 1927.31C3280.7 1925.3 3281.08 1923.53 3281.83 1921.99C3282.59 1920.46 3283.64 1919.26 3285 1918.4C3286.36 1917.54 3287.96 1917.11 3289.78 1917.11C3290.89 1917.11 3291.96 1917.29 3293 1917.66C3294.04 1918.02 3294.98 1918.6 3295.8 1919.38C3296.63 1920.17 3297.28 1921.19 3297.76 1922.44C3298.24 1923.68 3298.47 1925.2 3298.47 1926.98V1928.33H3282.86V1925.47H3294.73C3294.73 1924.46 3294.52 1923.57 3294.11 1922.8C3293.71 1922.01 3293.13 1921.39 3292.39 1920.94C3291.66 1920.49 3290.8 1920.27 3289.81 1920.27C3288.73 1920.27 3287.8 1920.53 3286.99 1921.06C3286.2 1921.58 3285.59 1922.26 3285.15 1923.1C3284.73 1923.94 3284.51 1924.85 3284.51 1925.83V1928.06C3284.51 1929.38 3284.74 1930.49 3285.2 1931.41C3285.67 1932.33 3286.32 1933.04 3287.16 1933.52C3288 1934 3288.97 1934.24 3290.09 1934.24C3290.81 1934.24 3291.47 1934.14 3292.07 1933.93C3292.67 1933.72 3293.18 1933.4 3293.62 1932.99C3294.05 1932.57 3294.38 1932.05 3294.61 1931.44L3298.23 1932.09C3297.94 1933.16 3297.42 1934.09 3296.67 1934.89C3295.93 1935.68 3295 1936.3 3293.87 1936.74C3292.76 1937.18 3291.48 1937.4 3290.05 1937.4ZM3318.55 1917.36L3311.43 1937H3307.34L3300.21 1917.36H3304.31L3309.29 1932.47H3309.49L3314.45 1917.36H3318.55ZM3333.32 1924.28V1927.59H3321.71V1924.28H3333.32ZM3341.84 1910.82V1937H3338.02V1910.82H3341.84ZM3346.59 1937V1917.36H3350.41V1937H3346.59ZM3348.52 1914.33C3347.85 1914.33 3347.28 1914.11 3346.81 1913.67C3346.34 1913.22 3346.1 1912.68 3346.1 1912.06C3346.1 1911.43 3346.34 1910.89 3346.81 1910.45C3347.28 1910 3347.85 1909.77 3348.52 1909.77C3349.18 1909.77 3349.75 1910 3350.22 1910.45C3350.7 1910.89 3350.93 1911.43 3350.93 1912.06C3350.93 1912.68 3350.7 1913.22 3350.22 1913.67C3349.75 1914.11 3349.18 1914.33 3348.52 1914.33ZM3355.46 1937V1910.82H3359.29V1920.55H3359.52C3359.74 1920.14 3360.06 1919.66 3360.48 1919.13C3360.89 1918.59 3361.47 1918.12 3362.21 1917.72C3362.96 1917.31 3363.94 1917.11 3365.15 1917.11C3366.74 1917.11 3368.15 1917.51 3369.4 1918.31C3370.64 1919.11 3371.62 1920.27 3372.33 1921.77C3373.04 1923.28 3373.4 1925.1 3373.4 1927.22C3373.4 1929.34 3373.05 1931.16 3372.34 1932.68C3371.63 1934.19 3370.66 1935.35 3369.42 1936.17C3368.19 1936.98 3366.78 1937.38 3365.19 1937.38C3364 1937.38 3363.02 1937.18 3362.26 1936.78C3361.51 1936.38 3360.93 1935.91 3360.5 1935.38C3360.07 1934.84 3359.75 1934.36 3359.52 1933.94H3359.2V1937H3355.46ZM3359.21 1927.18C3359.21 1928.56 3359.41 1929.77 3359.81 1930.81C3360.21 1931.85 3360.79 1932.67 3361.55 1933.25C3362.31 1933.83 3363.24 1934.12 3364.34 1934.12C3365.48 1934.12 3366.43 1933.82 3367.2 1933.22C3367.97 1932.6 3368.55 1931.77 3368.94 1930.72C3369.34 1929.67 3369.54 1928.49 3369.54 1927.18C3369.54 1925.89 3369.34 1924.72 3368.95 1923.69C3368.57 1922.66 3367.99 1921.85 3367.21 1921.25C3366.45 1920.65 3365.49 1920.36 3364.34 1920.36C3363.23 1920.36 3362.29 1920.64 3361.52 1921.21C3360.76 1921.78 3360.19 1922.58 3359.8 1923.6C3359.41 1924.62 3359.21 1925.82 3359.21 1927.18Z" fill="black"/>
</svg>
